…
output = map_df(iris_with_missing, replace_iris_missing) #maps function to each vector 

output #to check that it worked
```

    ## # A tibble: 150 x 5
    ##    Sepal.Length Sepal.Width Petal.Length Petal.Width Species  
    ##           <dbl>       <dbl>        <dbl>       <dbl> <chr>    
    ##  1         5.1          3.5         1.4         0.2  setosa   
    ##  2         4.9          3           1.4         0.2  setosa   
    ##  3         4.7          3.2         3.84        0.2  virginica
    ##  4         4.6          3.1         1.5         0.2  virginica
    ##  5         5            3.6         1.4         1.24 setosa   
    ##  6         5.4          3.9         1.7         1.24 setosa   
    ##  7         5.88         3.4         1.4         0.3  setosa   
    ##  8         5            3.4         1.5         0.2  setosa   
    ##  9         4.4          2.9         1.4         0.2  setosa   
    ## 10         4.9          3.1         1.5         0.1  setosa   
    ## # … with 140 more rows
…
